Analyzing geospatial networks in R using sfnetworks
…
Part II: Basic functionalities

Data structure

The sfnetwork data structure looks like a combination of an sf table for the nodes, and an sf table for the edges.

net

# A sfnetwork with 12 nodes and 15 edges
#
# CRS:  NA 
#
# An undirected simple graph with 1 component with spatially explicit edges
#
# A tibble: 12 × 1
  geometry
   <POINT>
1    (0 1)
2    (1 1)
3    (1 2)
4    (1 0)
5    (2 1)
6    (2 2)
# ℹ 6 more rows
#
# A tibble: 15 × 3
   from    to     geometry
  <int> <int> <LINESTRING>
1     1     2   (0 1, 1 1)
2     2     3   (1 1, 1 2)
3     2     4   (1 1, 1 0)
# ℹ 12 more rows

Just as with an sf object, we can assign it a coordinate reference system…

st_crs(net) = 22293
net

# A sfnetwork with 12 nodes and 15 edges
#
# CRS:  EPSG:22293 
#
# An undirected simple graph with 1 component with spatially explicit edges
#
# A tibble: 12 × 1
     geometry
  <POINT [m]>
1       (0 1)
2       (1 1)
3       (1 2)
4       (1 0)
5       (2 1)
6       (2 2)
# ℹ 6 more rows
#
# A tibble: 15 × 3
   from    to         geometry
  <int> <int> <LINESTRING [m]>
1     1     2       (0 1, 1 1)
2     2     3       (1 1, 1 2)
3     2     4       (1 1, 1 0)
# ℹ 12 more rows

… and transform it to other coordinate reference systems.

net |>
  st_transform(4326)

# A sfnetwork with 12 nodes and 15 edges
#
# CRS:  EPSG:4326 
#
# An undirected simple graph with 1 component with spatially explicit edges
#
# A tibble: 12 × 1
                 geometry
              <POINT [°]>
1 (32.99985 -0.002649828)
2 (32.99984 -0.002649828)
3 (32.99984 -0.002658872)
4 (32.99984 -0.002640784)
5 (32.99983 -0.002649828)
6 (32.99983 -0.002658872)
# ℹ 6 more rows
#
# A tibble: 15 × 3
   from    to                                       geometry
  <int> <int>                               <LINESTRING [°]>
1     1     2 (32.99985 -0.002649828, 32.99984 -0.002649828)
2     2     3 (32.99984 -0.002649828, 32.99984 -0.002658872)
3     2     4 (32.99984 -0.002649828, 32.99984 -0.002640784)
# ℹ 12 more rows
…
net

# A sfnetwork with 12 nodes and 15 edges
#
# CRS:  EPSG:22293 
#
# An undirected simple graph with 1 component with spatially explicit edges
#
# A tibble: 15 × 5
   from    to         geometry name   length
  <int> <int> <LINESTRING [m]> <chr>     [m]
1     1     2       (0 1, 1 1) edge_a      1
2     2     3       (1 1, 1 2) edge_b      1
3     2     4       (1 1, 1 0) edge_c      1
4     2     5       (1 1, 2 1) edge_d      1
5     3     6       (1 2, 2 2) edge_e      1
6     4     7       (1 0, 4 0) edge_f      3
# ℹ 9 more rows
#
# A tibble: 12 × 2
     geometry keep_me
  <POINT [m]> <lgl>  
1       (0 1) FALSE  
2       (1 1) TRUE   
3       (1 2) FALSE  
# ℹ 9 more rows
…
Note

Note here that in the edges table the geometry column is not the only “sticky” column anymore. Also the from and to columns, that reference the nodes at each end of the edge, survive every select operation.

net |>
  activate(edges) |>
  select(length)

# A sfnetwork with 12 nodes and 15 edges
#
# CRS:  EPSG:22293 
#
# An undirected simple graph with 1 component with spatially explicit edges
#
# A tibble: 15 × 4
   from    to length         geometry
  <int> <int>    [m] <LINESTRING [m]>
1     1     2      1       (0 1, 1 1)
2     2     3      1       (1 1, 1 2)
3     2     4      1       (1 1, 1 0)
4     2     5      1       (1 1, 2 1)
5     3     6      1       (1 2, 2 2)
6     4     7      3       (1 0, 4 0)
# ℹ 9 more rows
#
# A tibble: 12 × 2
     geometry keep_me
  <POINT [m]> <lgl>  
1       (0 1) FALSE  
2       (1 1) TRUE   
3       (1 2) FALSE  
# ℹ 9 more rows
…
polys = st_sf(geometry = c(poly1, poly2)) |>
  mutate(poly_id = c(1, 2))

net_joined = net |>
  st_join(polys)

net_joined

# A sfnetwork with 12 nodes and 15 edges
#
# CRS:  EPSG:22293 
#
# An undirected simple graph with 1 component with spatially explicit edges
#
# A tibble: 12 × 4
     geometry keep_me degree poly_id
  <POINT [m]> <lgl>    <dbl>   <dbl>
1       (0 1) FALSE        1       1
2       (1 1) TRUE         4       1
3       (1 2) FALSE        2       1
4       (1 0) FALSE        2       1
5       (2 1) TRUE         3       1
6       (2 2) FALSE        2       1
# ℹ 6 more rows
#
# A tibble: 15 × 5
   from    to         geometry name   length
  <int> <int> <LINESTRING [m]> <chr>     [m]
1     1     2       (0 1, 1 1) edge_a      1
2     2     3       (1 1, 1 2) edge_b      1
3     2     4       (1 1, 1 0) edge_c      1
# ℹ 12 more rows
…
The retrieved streets from OpenStreetMap can be converted into a sfnetwork object, and project it to the South African CRS.

net = as_sfnetwork(lines, directed = FALSE) |>
  st_transform(22293)

net

# A sfnetwork with 539 nodes and 300 edges
#
# CRS:  EPSG:22293 
#
# An undirected multigraph with 249 components with spatially explicit edges
#
# A tibble: 539 × 1
            geometry
         <POINT [m]>
1 (294180.5 3352459)
2 (294107.1 3352448)
3 (293931.7 3352428)
4 (291253.8 3351838)
5 (294426.6 3352489)
6 (294592.6 3352554)
# ℹ 533 more rows
#
# A tibble: 300 × 8
   from    to name        type    lanes oneway surface                  geometry
  <int> <int> <chr>       <chr>   <chr> <chr>  <chr>            <LINESTRING [m]>
1     1     2 Main Street primary <NA>  <NA>   asphalt (294180.5 3352459, 29410…
2     3     4 <NA>        primary <NA>  <NA>   asphalt (293931.7 3352428, 29387…
3     5     6 <NA>        service <NA>  <NA>   unpaved (294426.6 3352489, 29442…
# ℹ 297 more rows
…
